{
    "os": "macOS-10.16-x86_64-i386-64bit",
    "python": "3.9.17",
    "heartbeatAt": "2023-08-05T23:35:06.071385",
    "startedAt": "2023-08-05T23:35:04.531030",
    "docker": null,
    "cuda": null,
    "args": [],
    "state": "running",
    "program": "<python with no main file>",
    "git": {
        "remote": null,
        "commit": "337a16c28a70ecf26e6e5b57e1098a5814444ed5"
    },
    "email": "sebastianlarson22@gmail.com",
    "root": "/Users/sebastianlarson/Dev/stock_prediction",
    "host": "Sebastians-MBP.lan",
    "username": "sebastianlarson",
    "executable": "/usr/local/Caskroom/miniconda/base/envs/stock_prediction/bin/python",
    "cpu_count": 4,
    "cpu_count_logical": 8,
    "cpu_freq": {
        "current": 2700,
        "min": 2700,
        "max": 2700
    },
    "cpu_freq_per_core": [
        {
            "current": 2700,
            "min": 2700,
            "max": 2700
        }
    ],
    "disk": {
        "total": 931.546989440918,
        "used": 8.537452697753906
    },
    "memory": {
        "total": 16.0
    }
}
