{
    "os": "macOS-10.16-x86_64-i386-64bit",
    "python": "3.9.17",
    "heartbeatAt": "2023-08-08T23:11:42.107353",
    "startedAt": "2023-08-08T23:11:40.784144",
    "docker": null,
    "cuda": null,
    "args": [],
    "state": "running",
    "program": "<python with no main file>",
    "git": {
        "remote": null,
        "commit": "e066ca547209d5f0ac81b106eae29852fb2b247f"
    },
    "email": "sebastianlarson22@gmail.com",
    "root": "/Users/sebastianlarson/Dev/stock_prediction",
    "host": "Sebastians-MacBook-Pro.local",
    "username": "sebastianlarson",
    "executable": "/usr/local/Caskroom/miniconda/base/envs/stock_prediction/bin/python",
    "cpu_count": 4,
    "cpu_count_logical": 8,
    "cpu_freq": {
        "current": 2700,
        "min": 2700,
        "max": 2700
    },
    "cpu_freq_per_core": [
        {
            "current": 2700,
            "min": 2700,
            "max": 2700
        }
    ],
    "disk": {
        "total": 931.546989440918,
        "used": 8.53744125366211
    },
    "memory": {
        "total": 16.0
    }
}
